<?xml version="1.0" encoding="utf-8"?>
<!-- Generator: Adobe Illustrator 16.0.4, SVG Export Plug-In . SVG Version: 6.00 Build 0)  -->
<!DOCTYPE svg PUBLIC "-//W3C//DTD SVG 1.1//EN" "http://www.w3.org/Graphics/SVG/1.1/DTD/svg11.dtd">
<svg version="1.1" id="Layer_1" xmlns="http://www.w3.org/2000/svg" xmlns:xlink="http://www.w3.org/1999/xlink" x="0px" y="0px"
	 width="500px" height="500px" viewBox="0 0 500 500" enable-background="new 0 0 500 500" xml:space="preserve">
<path d="M12.478,441.965c3.356,1.343,30.874,32.216,41.611,44.297c2.014,2.684,6.041,2.014,7.383-0.672
	c12.752-21.477,57.048-97.317,59.061-101.344c0.671-2.014,2.014-3.355,2.685-4.027c1.343-2.013,4.026-2.013,6.041-1.343l1.342,0.673
	c2.013,0.67,4.027,0.67,5.369,0l14.765-8.055c2.014-1.343,3.356-4.699,2.014-7.383c-8.725-19.463,4.026-33.559,7.383-38.927
	c3.355-5.37,6.041-2.014,6.041-2.014c6.711,8.055,14.765,4.026,14.765,4.026l11.411-9.396c7.383-8.726-1.343-16.108-1.343-16.108
	c-1.342-0.67-2.014-2.013-2.014-2.684c0-1.343,0-2.014,0.671-2.684c14.093-12.753,165.774-151.682,171.145-159.065
	c3.355-4.026,3.355-8.053,2.013-10.067s-0.67-4.698,1.343-6.04L485.642,21.152c2.684-2.014,2.684-5.369,1.343-7.383l0,0
	c-2.015-2.014-5.369-2.685-7.383-0.671L237.314,209.075c-0.671,0-0.671,0-0.671,0h-1.343c-0.67,0-0.67,0-0.67,0l-2.685,2.685
	c-0.671,0.671-1.343,0-1.343,0l-0.67-0.671c-0.673,0-1.343,0-1.343,0l-2.014,2.013c-0.671,0.671-1.343,0-1.343,0
	c-0.671-0.671-1.341-0.671-2.014,0l-11.408,8.055c-0.673,0.67-1.343,0.67-1.343,0l-2.685-3.356c-0.671,0-0.671,0-1.343,0
	l-8.053,6.711c-0.673,0.671-1.343,0.671-2.014,0l-8.724-10.738c-0.672-0.671-0.672-1.342,0-2.013c0.67-0.671,1.341-0.671,1.341,0
	l0.671,0.671c0.671,0,0.671,0,1.342,0l2.685-2.014c0-0.671,0.67-0.671,0-1.342c-0.672-0.671-0.672-1.342,0-1.342l8.053-6.712
	c0-0.671,0-0.671,0-1.342l-7.383-8.725c-0.67,0-0.67,0-1.343,0l-7.383,6.041c0,0.67,0,0.67,0,1.342l0,0
	c0.672,0.671,0.672,1.343,0,1.343l-12.751,10.067c-0.671,0.671-1.342,0.671-1.342,0v-0.671c-0.671,0-0.671,0-1.343,0l-5.369,4.026
	c0,0.671,0,0.671,0,1.343l0,0c0.671,0.671,0.671,1.342,0,1.342l-13.423,10.739c-0.671,0.671-1.341,0.671-1.341,0l-0.671-0.671
	c-0.671,0-0.671,0-1.342,0l-11.41,9.396c0,0.671,0,0.671,0,1.342l8.724,10.739c0.671,0,0.671,0,1.343,0l11.41-9.396
	c0-0.671,0-0.671,0-1.343l-0.671-0.671c-0.671-0.671-0.671-1.342,0-1.342h0.671c0.671-0.671,1.342-0.671,1.342,0l0.671,0.671
	c0.671,0,0.671,0,1.343,0l2.013-2.014c0-0.671,0-0.671,0-1.342c-0.671-0.671-0.671-1.342,0-1.342l0.671-0.671
	c0.671-0.671,1.343-0.671,1.343,0l6.711,8.054c0.671,0.671,0.671,1.342,0,1.342l-2.685,2.686c0,0.67,0,0.67,0,1.342l2.014,2.685
	c0.671,0.671,0.671,1.342,0,1.342l-6.041,4.698c0,0.672,0,0.672,0,1.343l2.685,3.355c0.67,0.672,0.67,1.343,0,1.343l-6.711,5.369
	c0,0.671,0,0.671,0,1.342l1.341,1.343c0.671,0.671,0.671,1.342,0,1.342l-6.71,4.699c0,0.67,0,0.67,0,1.342l1.341,2.014
	c0.671,0.671,0.671,1.342,0,1.342l-6.041,3.355h-0.671l0,0h-0.67l-6.041,4.698c0,0.671,0,0.671,0,1.343l0.67,0.671
	c0.671,0.672,0.671,1.342,0,1.342l-6.041,5.37c0,0.67,0,0.67,0,1.343l4.699,6.04c0,0.67,0,1.343,0,1.343
	c-4.699,5.368-12.081,25.503-12.752,27.517l0,0c-11.409,12.081-16.778,10.066-18.121,8.726c-0.671,0-1.342,0-1.342,0L45.365,397.67
	c-2.014,1.342-2.685,3.354-3.356,5.367l-1.341,5.371c0,1.342-1.343,3.354-2.685,4.697C31.271,419.817,9.123,440.622,12.478,441.965z
	 M170.199,323.171c-2.684-3.356-2.013-8.054,1.343-10.739l0.671-0.67l0,0c4.027,10.066,11.41,8.053,11.41,8.053
	c0.671,0,0.671,0,0.671,0c0.671-0.67,0.671-2.684-0.671-2.684c-5.369-0.672-6.711-5.369-6.711-8.725l0.671-0.672l2.014-2.013
	c3.355-3.355,8.724-2.686,11.409,1.342c2.685,3.355,2.013,8.054-1.342,10.738l-8.054,6.711
	C178.253,327.197,172.884,326.527,170.199,323.171z"/>
</svg>
